{
  "public": {
    "persistent_session": {
      "default_method": "authenticated"
    }
  },
  "private": {
    "kadira": {
      "appId": "fLC6erq5jXaD2d3rN",
      "appSecret": "42bac814-c2ba-4d29-96ef-52f2fad06d2d"
    }
  },
  "backendURL": "https://datastore-dot-buzzlogix-prod.appspot.com",
  "restPollInterval": 30,
  "restApiTimeout": 30000
}